# Time [ms], Encoder Position [-]
0,-782
100,-782
200,-782
300,-782
400,-782
500,-782
600,-782
700,-782
800,-781
900,-775
1000,-759
1100,-758
1200,-757
1300,-736
1400,-733
1500,-741
1600,-752
1700,-752
1800,-752
1900,-766
2000,-770
2100,-770
2200,-774
2300,-783
2400,-782
2500,-781
2600,-790
2700,-791
2800,-785
2900,-767
3000,-775
3100,-789
3200,-790
3300,-790
3400,-798
3500,-798
3600,-798
3700,-798
3800,-798
3900,-805
4000,-805
4100,-806
4200,-821
4300,-825
4400,-825
4500,-825
4600,-842
4700,-845
4800,-845
4900,-845
5000,-861
5100,-864
5200,-865
5300,-865
5400,-865
5500,-865
5600,-854
5700,-853
5800,-853
5900,-842
6000,-835
6100,-835
6200,-835
6300,-834
6400,-835
6500,-834
6600,-820
6700,-819
6800,-819
6900,-809
7000,-801
7100,-801
7200,-799
7300,-786
7400,-785
7500,-785
7600,-773
7700,-761
7800,-761
7900,-759
8000,-737
8100,-735
8200,-735
8300,-728
8400,-713
8500,-714
8600,-713
8700,-699
8800,-690
8900,-690
9000,-690
9100,-681
9200,-670
9300,-669
9400,-669
9500,-671
9600,-678
9700,-686
9800,-691
9900,-695
10000,-695
10100,-695
10200,-703
10300,-712
10400,-715
10500,-716
10600,-710
10700,-699
10800,-689
10900,-689
11000,-689
11100,-683
11200,-667
11300,-663
11400,-663
11500,-665
11600,-675
11700,-683
11800,-687
11900,-687
12000,-685
12100,-699
12200,-705
12300,-705
12400,-704
12500,-713
12600,-721
12700,-722
12800,-721
12900,-729
13000,-736
13100,-737
13200,-737
13300,-737
13400,-737
13500,-736
13600,-737
13700,-737
13800,-737
13900,-739
14000,-738
14100,-738
14200,-739
14300,-738
14400,-738
14500,-738
14600,-739
14700,-738
14800,-738
14900,-738
15000,-738
