# Time [ms], Motor Speed [RPM], Reference Motor Speed [RPM], Motor Position [deg], Reference Motor Position [deg]
0,0.00,300.00,0.72,0.00
25,0.00,300.00,0.72,45.00
50,304.80,300.00,46.44,90.00
75,406.80,300.00,107.46,135.00
100,0.00,300.00,107.46,180.00
125,13.80,300.00,109.53,225.00
150,3.60,300.00,110.07,270.00
175,2.40,300.00,110.43,315.00
200,1.20,300.00,110.61,360.00
225,1.80,300.00,110.88,405.00
250,1.80,300.00,111.15,450.00
275,0.60,300.00,111.24,451.80
300,2.40,300.00,111.60,495.00
325,2.40,300.00,111.96,540.00
350,5.40,300.00,112.77,585.00
375,23.40,300.00,116.28,630.00
400,1.80,300.00,116.55,675.00
425,1.80,300.00,116.82,720.00
450,6.60,300.00,117.81,765.00
475,1.80,300.00,118.08,810.00
500,0.00,300.00,118.08,855.00
525,7.20,300.00,119.16,900.00
550,3.60,300.00,119.70,945.00
575,72.00,300.00,130.50,990.00
600,499.80,300.00,205.47,1035.00
625,427.20,300.00,269.55,1080.00
650,3.00,300.00,270.00,1125.00
675,477.60,300.00,341.64,1170.00
700,643.20,300.00,438.12,1215.00
725,85.80,300.00,450.99,1260.00
750,40.20,300.00,457.02,1305.00
775,140.40,300.00,478.08,1350.00
800,363.60,300.00,532.62,1395.00
825,100.20,300.00,547.65,1440.00
850,222.60,300.00,581.04,1485.00
875,204.60,300.00,611.73,1530.00
900,1.80,300.00,612.00,1575.00
925,399.00,300.00,671.85,1620.00
950,523.20,300.00,750.33,1665.00
975,-6.60,300.00,749.34,1710.00
1000,531.00,300.00,828.99,1755.00
1025,832.20,300.00,953.82,1800.00
1050,283.80,300.00,996.39,1845.00
1075,0.00,300.00,996.39,1890.00
1100,520.80,300.00,1074.51,1935.00
1125,583.80,300.00,1162.08,1980.00
1150,141.00,300.00,1183.23,2025.00
1175,88.80,300.00,1196.55,2070.00
1200,324.60,300.00,1245.24,2115.00
1225,225.00,300.00,1278.99,2160.00
1250,0.60,300.00,1279.08,2205.00
1275,512.40,300.00,1355.94,2250.00
1300,471.00,300.00,1426.59,2295.00
1325,0.00,300.00,1426.59,2340.00
1350,150.00,300.00,1449.09,2385.00
1375,403.80,300.00,1509.66,2430.00
1400,120.60,300.00,1527.75,2475.00
1425,154.20,300.00,1550.88,2520.00
1450,196.20,300.00,1580.31,2565.00
1475,1.80,300.00,1580.58,2610.00
1500,385.80,300.00,1638.45,2655.00
1525,430.20,300.00,1702.98,2700.00
1550,1.20,300.00,1703.16,2745.00
1575,0.00,300.00,1703.16,2790.00
1600,0.00,300.00,1703.16,2835.00
1625,0.00,300.00,1703.16,2880.00
1650,0.00,300.00,1703.16,2925.00
1675,0.00,300.00,1703.16,2970.00
1700,0.00,300.00,1703.16,3015.00
1725,0.00,300.00,1703.16,3060.00
1750,0.00,300.00,1703.16,3105.00
1775,0.00,300.00,1703.16,3150.00
1800,2.40,300.00,1703.52,3195.00
1825,3.60,300.00,1704.06,3240.00
1850,6.00,300.00,1704.96,3285.00
1875,6.00,300.00,1705.86,3330.00
1900,7.20,300.00,1706.94,3375.00
1925,3.60,300.00,1707.48,3420.00
1950,4.80,300.00,1708.20,3465.00
1975,3.00,300.00,1708.65,3510.00
2000,3.00,300.00,1709.10,3555.00
2025,4.80,300.00,1709.82,3600.00
2050,3.60,300.00,1710.36,3601.80
2075,13.80,300.00,1712.43,3645.00
2100,13.80,300.00,1714.50,3690.00
2125,124.80,300.00,1733.22,3735.00
2150,24.00,300.00,1736.82,3780.00
2175,0.00,300.00,1736.82,3825.00
2200,0.00,300.00,1736.82,3870.00
2225,273.00,300.00,1777.77,3915.00
2250,511.80,300.00,1854.54,3960.00
2275,27.00,300.00,1858.59,4005.00
2300,402.60,300.00,1918.98,4050.00
2325,472.80,300.00,1989.90,4095.00
2350,61.20,300.00,1999.08,4140.00
2375,252.00,300.00,2036.88,4185.00
2400,43.80,300.00,2043.45,4230.00
2425,1.80,300.00,2043.72,4275.00
2450,9.00,300.00,2045.07,4320.00
2475,3.00,300.00,2045.52,4365.00
2500,1.80,300.00,2045.79,4410.00
2525,2.40,300.00,2046.15,4455.00
2550,2.40,300.00,2046.51,4500.00
2575,1.20,300.00,2046.69,4545.00
2600,3.00,300.00,2047.14,4590.00
2625,3.00,300.00,2047.59,4635.00
2650,3.00,300.00,2048.04,4680.00
2675,3.60,300.00,2048.58,4725.00
2700,3.00,300.00,2049.03,4770.00
2725,2.40,300.00,2049.39,4815.00
2750,1.80,300.00,2049.66,4860.00
2775,0.60,300.00,2049.75,4905.00
2800,0.00,300.00,2049.75,4950.00
2825,0.00,300.00,2049.75,4995.00
2850,0.00,300.00,2049.75,5040.00
2875,0.00,300.00,2049.75,5085.00
2900,-0.60,300.00,2049.66,5130.00
2925,1.20,300.00,2049.84,5175.00
2950,1.20,300.00,2050.02,5220.00
2975,0.60,300.00,2050.11,5265.00
3000,0.60,300.00,2050.20,5310.00
3025,-0.60,300.00,2050.11,5355.00
3050,0.60,300.00,2050.20,5400.00
3075,0.00,300.00,2050.20,5445.00
3100,0.00,300.00,2050.20,5490.00
3125,0.00,300.00,2050.20,5535.00
3150,0.00,300.00,2050.20,5580.00
3175,0.00,300.00,2050.20,5625.00
3200,-0.60,300.00,2050.11,5670.00
3225,2.40,300.00,2050.47,5715.00
3250,1.20,300.00,2050.65,5760.00
3275,1.20,300.00,2050.83,5805.00
3300,3.00,300.00,2051.28,5850.00
3325,0.60,300.00,2051.37,5895.00
3350,0.00,300.00,2051.37,5940.00
3375,0.00,300.00,2051.37,5985.00
3400,0.00,300.00,2051.37,6030.00
3425,0.00,300.00,2051.37,6075.00
3450,0.00,300.00,2051.37,6120.00
3475,0.00,300.00,2051.37,6165.00
3500,0.60,300.00,2051.46,6210.00
3525,0.60,300.00,2051.55,6255.00
3550,1.20,300.00,2051.73,6300.00
3575,-1.20,300.00,2051.55,6345.00
3600,1.20,300.00,2051.73,6390.00
3625,0.00,300.00,2051.73,6435.00
3650,0.00,300.00,2051.73,6480.00
3675,0.00,300.00,2051.73,6525.00
3700,-0.60,300.00,2051.64,6570.00
3725,0.60,300.00,2051.73,6615.00
3750,0.00,300.00,2051.73,6660.00
3775,1.20,300.00,2051.91,6705.00
3800,1.20,300.00,2052.09,6750.00
3825,0.60,300.00,2052.18,6795.00
3850,-0.60,300.00,2052.09,6840.00
3875,1.20,300.00,2052.27,6885.00
3900,0.00,300.00,2052.27,6930.00
3925,0.00,300.00,2052.27,6975.00
3950,0.00,300.00,2052.27,7020.00
3975,0.00,300.00,2052.27,7065.00
4000,-0.60,300.00,2052.18,7110.00
4025,2.40,300.00,2052.54,7155.00
4050,0.60,300.00,2052.63,7200.00
4075,0.00,0.00,2052.63,7200.90
4100,0.00,0.00,2052.63,7200.90
4125,0.00,0.00,2052.63,7200.90
4150,0.00,0.00,2052.63,7200.90
4175,0.00,0.00,2052.63,7200.90
4200,0.00,0.00,2052.63,7200.90
4225,0.00,0.00,2052.63,7200.90
4250,0.00,0.00,2052.63,7200.90
4275,0.00,0.00,2052.63,7200.90
4300,0.00,0.00,2052.63,7200.90
4325,0.00,0.00,2052.63,7200.90
4350,0.00,0.00,2052.63,7200.90
4375,0.00,0.00,2052.63,7200.90
4400,0.00,0.00,2052.63,7200.90
4425,0.00,0.00,2052.63,7200.90
4450,0.00,0.00,2052.63,7200.90
4475,0.00,0.00,2052.63,7200.90
4500,0.00,0.00,2052.63,7200.90
4525,0.00,0.00,2052.63,7200.90
4550,0.00,0.00,2052.63,7200.90
4575,0.00,0.00,2052.63,7200.90
4600,0.00,0.00,2052.63,7200.90
4625,0.00,0.00,2052.63,7200.90
4650,0.00,0.00,2052.63,7200.90
4675,0.00,0.00,2052.63,7200.90
4700,0.00,0.00,2052.63,7200.90
4725,0.00,0.00,2052.63,7200.90
4750,0.00,0.00,2052.63,7200.90
4775,0.00,0.00,2052.63,7200.90
4800,0.00,0.00,2052.63,7200.90
4825,0.00,0.00,2052.63,7200.90
4850,0.00,0.00,2052.63,7200.90
4875,0.00,0.00,2052.63,7200.90
4900,0.00,0.00,2052.63,7200.90
4925,0.00,0.00,2052.63,7200.90
4950,0.00,0.00,2052.63,7200.90
4975,0.00,0.00,2052.63,7200.90
5000,0.00,0.00,2052.63,7200.90
5025,0.00,0.00,2052.63,7200.90
5050,0.00,0.00,2052.63,7200.90
5075,0.00,0.00,2052.63,7200.90
5100,0.00,0.00,2052.63,7200.90
5125,0.00,0.00,2052.63,7200.90
5150,0.00,0.00,2052.63,7200.90
5175,0.00,0.00,2052.63,7200.90
5200,0.00,0.00,2052.63,7200.90
5225,0.00,0.00,2052.63,7200.90
5250,0.00,0.00,2052.63,7200.90
5275,0.00,0.00,2052.63,7200.90
5300,0.00,0.00,2052.63,7200.90
5325,0.00,0.00,2052.63,7200.90
5350,0.00,0.00,2052.63,7200.90
5375,0.00,0.00,2052.63,7200.90
5400,0.00,0.00,2052.63,7200.90
5425,0.00,0.00,2052.63,7200.90
5450,0.00,0.00,2052.63,7200.90
5475,0.00,0.00,2052.63,7200.90
5500,0.00,0.00,2052.63,7200.90
5525,0.00,0.00,2052.63,7200.90
5550,0.00,0.00,2052.63,7200.90
5575,0.00,0.00,2052.63,7200.90
5600,0.00,0.00,2052.63,7200.90
5625,0.00,0.00,2052.63,7200.90
5650,0.00,0.00,2052.63,7200.90
5675,0.00,0.00,2052.63,7200.90
5700,0.00,0.00,2052.63,7200.90
5725,0.00,0.00,2052.63,7200.90
5750,0.00,0.00,2052.63,7200.90
5775,0.00,0.00,2052.63,7200.90
5800,0.00,0.00,2052.63,7200.90
5825,0.00,0.00,2052.63,7200.90
5850,0.00,0.00,2052.63,7200.90
5875,0.00,0.00,2052.63,7200.90
5900,0.00,0.00,2052.63,7200.90
5925,0.00,0.00,2052.63,7200.90
5950,0.00,0.00,2052.63,7200.90
5975,0.00,0.00,2052.63,7200.90
6000,0.00,0.00,2052.63,7200.90
6025,0.00,0.00,2052.63,7200.90
6050,0.00,0.00,2052.63,7200.90
6075,0.00,0.00,2052.63,7200.90
6100,0.00,0.00,2052.63,7200.90
6125,0.00,0.00,2052.63,7200.90
6150,0.00,0.00,2052.63,7200.90
6175,0.00,0.00,2052.63,7200.90
6200,0.00,0.00,2052.63,7200.90
6225,0.00,0.00,2052.63,7200.90
6250,0.00,0.00,2052.63,7200.90
6275,0.00,0.00,2052.63,7200.90
6300,0.00,0.00,2052.63,7200.90
6325,0.00,0.00,2052.63,7200.90
6350,0.00,0.00,2052.63,7200.90
6375,0.00,0.00,2052.63,7200.90
6400,0.00,0.00,2052.63,7200.90
6425,0.00,0.00,2052.63,7200.90
6450,0.00,0.00,2052.63,7200.90
6475,0.00,0.00,2052.63,7200.90
6500,0.00,0.00,2052.63,7200.90
6525,0.00,0.00,2052.63,7200.90
6550,0.00,0.00,2052.63,7200.90
6575,0.00,0.00,2052.63,7200.90
6600,0.00,0.00,2052.63,7200.90
6625,0.00,0.00,2052.63,7200.90
6650,0.00,0.00,2052.63,7200.90
6675,0.00,0.00,2052.63,7200.90
6700,0.00,0.00,2052.63,7200.90
6725,0.00,0.00,2052.63,7200.90
6750,0.00,0.00,2052.63,7200.90
6775,0.00,0.00,2052.63,7200.90
6800,0.00,0.00,2052.63,7200.90
6825,0.00,0.00,2052.63,7200.90
6850,0.00,0.00,2052.63,7200.90
6875,0.00,0.00,2052.63,7200.90
6900,0.00,0.00,2052.63,7200.90
6925,0.00,0.00,2052.63,7200.90
6950,0.00,0.00,2052.63,7200.90
6975,0.00,0.00,2052.63,7200.90
7000,0.00,0.00,2052.63,7200.90
7025,0.00,0.00,2052.63,7200.90
7050,0.00,-600.00,2052.63,7112.70
7075,-12.00,-600.00,2050.83,7022.70
7100,0.00,-600.00,2050.83,6932.70
7125,0.00,-600.00,2050.83,6842.70
7150,0.00,-600.00,2050.83,6752.70
7175,-0.60,-600.00,2050.74,6662.70
7200,-0.60,-600.00,2050.65,6572.70
7225,0.00,-600.00,2050.65,6482.70
7250,-0.60,-600.00,2050.56,6392.70
7275,-0.60,-600.00,2050.47,6302.70
7300,-1.80,-600.00,2050.20,6212.70
7325,-1.80,-600.00,2049.93,6122.70
7350,-15.00,-600.00,2047.68,6032.70
7375,-161.40,-600.00,2023.47,5942.70
7400,-880.20,-600.00,1891.44,5852.70
7425,-1137.00,-600.00,1720.89,5762.70
7450,-235.80,-600.00,1685.52,5672.70
7475,-355.20,-600.00,1632.24,5582.70
7500,-1054.80,-600.00,1474.02,5492.70
7525,-726.60,-600.00,1365.03,5402.70
7550,-94.80,-600.00,1350.81,5312.70
7575,-504.60,-600.00,1275.12,5222.70
7600,-955.80,-600.00,1131.75,5132.70
7625,-320.40,-600.00,1083.69,5042.70
7650,0.60,-600.00,1083.78,4952.70
7675,-9.60,-600.00,1082.34,4862.70
7700,-27.60,-600.00,1078.20,4772.70
7725,-192.00,-600.00,1049.40,4682.70
7750,-1000.80,-600.00,899.28,4592.70
7775,-1186.80,-600.00,721.26,4502.70
7800,-517.80,-600.00,643.59,4412.70
7825,-169.20,-600.00,618.21,4322.70
7850,-502.80,-600.00,542.79,4232.70
7875,-932.40,-600.00,402.93,4142.70
7900,-243.60,-600.00,366.39,4052.70
7925,-431.40,-600.00,301.68,3962.70
7950,-996.00,-600.00,152.28,3872.70
7975,-464.40,-600.00,82.62,3782.70
8000,-48.60,-600.00,75.33,3692.70
8025,-601.20,-600.00,-14.85,3602.70
8050,-972.00,0.00,-160.65,3600.90
8075,-367.80,0.00,-215.82,3600.90
8100,1.20,0.00,-215.64,3600.90
8125,0.00,0.00,-215.64,3600.90
8150,0.00,0.00,-215.64,3600.90
8175,0.00,0.00,-215.64,3600.90
8200,0.00,0.00,-215.64,3600.90
8225,0.00,0.00,-215.64,3600.90
8250,0.00,0.00,-215.64,3600.90
8275,0.00,0.00,-215.64,3600.90
8300,0.00,0.00,-215.64,3600.90
8325,0.00,0.00,-215.64,3600.90
8350,0.00,0.00,-215.64,3600.90
8375,0.00,0.00,-215.64,3600.90
8400,0.00,0.00,-215.64,3600.90
8425,0.00,0.00,-215.64,3600.90
8450,0.00,0.00,-215.64,3600.90
8475,0.00,0.00,-215.64,3600.90
8500,0.00,0.00,-215.64,3600.90
8525,0.00,0.00,-215.64,3600.90
8550,0.00,0.00,-215.64,3600.90
8575,0.00,0.00,-215.64,3600.90
8600,-0.60,0.00,-215.73,3600.90
8625,0.00,0.00,-215.73,3600.90
8650,0.00,0.00,-215.73,3600.90
8675,0.00,0.00,-215.73,3600.90
8700,0.00,0.00,-215.73,3600.90
8725,0.00,0.00,-215.73,3600.90
8750,0.00,0.00,-215.73,3600.90
8775,0.00,0.00,-215.73,3600.90
8800,0.00,0.00,-215.73,3600.90
8825,0.00,0.00,-215.73,3600.90
8850,0.00,0.00,-215.73,3600.90
8875,0.00,0.00,-215.73,3600.90
8900,0.00,0.00,-215.73,3600.90
8925,0.00,0.00,-215.73,3600.90
8950,0.00,0.00,-215.73,3600.90
8975,0.00,0.00,-215.73,3600.90
9000,0.00,0.00,-215.73,3600.90
9025,0.00,0.00,-215.73,3600.90
9050,0.00,0.00,-215.73,3600.90
9075,0.00,0.00,-215.73,3600.90
9100,0.00,0.00,-215.73,3600.90
9125,0.00,0.00,-215.73,3600.90
9150,0.00,0.00,-215.73,3600.90
9175,0.00,0.00,-215.73,3600.90
9200,0.00,0.00,-215.73,3600.90
9225,0.00,0.00,-215.73,3600.90
9250,0.00,0.00,-215.73,3600.90
9275,0.00,0.00,-215.73,3600.90
9300,0.00,0.00,-215.73,3600.90
9325,0.00,0.00,-215.73,3600.90
9350,0.00,0.00,-215.73,3600.90
9375,0.00,0.00,-215.73,3600.90
9400,0.00,0.00,-215.73,3600.90
9425,0.00,0.00,-215.73,3600.90
9450,0.00,0.00,-215.73,3600.90
9475,0.00,0.00,-215.73,3600.90
9500,0.00,0.00,-215.73,3600.90
9525,0.00,0.00,-215.73,3600.90
9550,0.00,0.00,-215.73,3600.90
9575,0.00,0.00,-215.73,3600.90
9600,0.00,0.00,-215.73,3600.90
9625,0.00,0.00,-215.73,3600.90
9650,0.00,0.00,-215.73,3600.90
9675,0.00,0.00,-215.73,3600.90
9700,0.00,0.00,-215.73,3600.90
9725,0.00,0.00,-215.73,3600.90
9750,0.00,0.00,-215.73,3600.90
9775,0.00,0.00,-215.73,3600.90
9800,0.00,0.00,-215.73,3600.90
9825,0.00,0.00,-215.73,3600.90
9850,0.00,0.00,-215.73,3600.90
9875,0.00,0.00,-215.73,3600.90
9900,0.00,0.00,-215.73,3600.90
9925,0.00,0.00,-215.73,3600.90
9950,0.00,0.00,-215.73,3600.90
9975,0.00,0.00,-215.73,3600.90
10000,0.00,0.00,-215.73,3600.90
10025,0.00,0.00,-215.73,3600.90
10050,0.00,0.00,-215.73,3600.90
10075,0.00,0.00,-215.73,3600.90
10100,0.00,0.00,-215.73,3600.90
10125,0.00,0.00,-215.73,3600.90
10150,0.00,0.00,-215.73,3600.90
10175,0.00,0.00,-215.73,3600.90
10200,0.00,0.00,-215.73,3600.90
10225,0.00,0.00,-215.73,3600.90
10250,0.00,0.00,-215.73,3600.90
10275,0.00,0.00,-215.73,3600.90
10300,0.00,0.00,-215.73,3600.90
10325,0.00,0.00,-215.73,3600.90
10350,0.00,0.00,-215.73,3600.90
10375,0.00,0.00,-215.73,3600.90
10400,0.00,0.00,-215.73,3600.90
10425,0.00,0.00,-215.73,3600.90
10450,0.00,0.00,-215.73,3600.90
10475,0.00,0.00,-215.73,3600.90
10500,0.00,0.00,-215.73,3600.90
10525,0.00,0.00,-215.73,3600.90
10550,0.00,0.00,-215.73,3600.90
10575,0.00,0.00,-215.73,3600.90
10600,0.00,0.00,-215.73,3600.90
10625,0.00,0.00,-215.73,3600.90
10650,0.00,0.00,-215.73,3600.90
10675,0.00,0.00,-215.73,3600.90
10700,0.00,0.00,-215.73,3600.90
10725,0.00,0.00,-215.73,3600.90
10750,0.00,0.00,-215.73,3600.90
10775,0.00,0.00,-215.73,3600.90
10800,0.00,0.00,-215.73,3600.90
10825,0.00,0.00,-215.73,3600.90
10850,0.00,0.00,-215.73,3600.90
10875,0.00,0.00,-215.73,3600.90
10900,0.00,0.00,-215.73,3600.90
10925,0.00,0.00,-215.73,3600.90
10950,0.00,0.00,-215.73,3600.90
10975,0.00,0.00,-215.73,3600.90
11000,0.00,0.00,-215.73,3600.90
11025,0.00,0.00,-215.73,3600.90
11050,0.00,7.50,-215.73,3601.50
11075,0.00,15.00,-215.73,3603.20
11100,0.60,22.50,-215.64,3606.00
11125,0.00,30.00,-215.64,3609.90
11150,0.60,37.50,-215.55,3615.00
11175,1.20,45.00,-215.37,3621.20
11200,0.60,52.50,-215.28,3628.50
11225,1.20,60.00,-215.10,3636.90
11250,2.40,67.50,-214.74,3646.50
11275,0.60,75.00,-214.65,3657.20
11300,2.40,82.50,-214.29,3669.00
11325,1.20,90.00,-214.11,3681.90
11350,1.80,97.50,-213.84,3696.00
11375,2.40,105.00,-213.48,3711.20
11400,3.60,112.50,-212.94,3727.50
11425,6.00,120.00,-212.04,3744.90
11450,6.00,127.50,-211.14,3763.50
11475,11.40,135.00,-209.43,3783.20
11500,6.00,142.50,-208.53,3804.00
11525,26.40,150.00,-204.57,3825.90
11550,42.00,157.50,-198.27,3849.00
11575,85.20,165.00,-185.49,3873.20
11600,16.80,172.50,-182.97,3898.50
11625,75.00,180.00,-171.72,3924.90
11650,27.60,187.50,-167.58,3952.50
11675,12.00,195.00,-165.78,3981.20
11700,163.80,202.50,-141.21,4011.00
11725,132.00,210.00,-121.41,4041.90
11750,0.00,217.50,-121.41,4074.00
11775,255.60,225.00,-83.07,4107.20
11800,208.80,232.50,-51.75,4141.50
11825,-1.20,240.00,-51.93,4176.90
11850,381.60,247.50,5.31,4213.50
11875,260.40,255.00,44.37,4251.20
11900,-10.20,262.50,42.84,4290.00
11925,442.80,270.00,109.26,4329.90
11950,412.80,277.50,171.18,4371.00
11975,25.20,285.00,174.96,4413.20
12000,339.60,292.50,225.90,4456.50
12025,405.00,300.00,286.65,4500.90
12050,21.00,292.50,289.80,4545.30
12075,467.40,285.00,359.91,4588.70
12100,360.60,277.50,414.00,4630.80
12125,0.00,270.00,414.00,4671.90
12150,388.80,262.50,472.32,4711.80
12175,445.80,255.00,539.19,4750.70
12200,4.20,247.50,539.82,4788.30
12225,347.40,240.00,591.93,4824.90
12250,315.00,232.50,639.18,4860.30
12275,1.80,225.00,639.45,4894.70
12300,295.80,217.50,683.82,4927.80
12325,201.00,210.00,713.97,4959.90
12350,0.00,202.50,713.97,4990.80
12375,4.20,195.00,714.60,5020.70
12400,0.00,187.50,714.60,5049.30
12425,0.00,180.00,714.60,5076.90
12450,0.00,172.50,714.60,5103.30
12475,0.00,165.00,714.60,5128.70
12500,0.00,157.50,714.60,5152.80
12525,0.00,150.00,714.60,5175.90
12550,0.00,142.50,714.60,5197.80
12575,0.00,135.00,714.60,5218.70
12600,0.60,127.50,714.69,5238.30
12625,0.00,120.00,714.69,5256.90
12650,0.00,112.50,714.69,5274.30
12675,0.00,105.00,714.69,5290.70
12700,0.00,97.50,714.69,5305.80
12725,0.00,90.00,714.69,5319.90
12750,0.00,82.50,714.69,5332.80
12775,0.00,75.00,714.69,5344.70
12800,0.00,67.50,714.69,5355.30
12825,0.00,60.00,714.69,5364.90
12850,0.00,52.50,714.69,5373.30
12875,0.00,45.00,714.69,5380.70
12900,0.00,37.50,714.69,5386.80
12925,0.00,30.00,714.69,5391.90
12950,0.00,22.50,714.69,5395.80
12975,0.00,15.00,714.69,5398.70
13000,0.00,7.50,714.69,5400.30
13025,0.00,0.00,714.69,5400.90
13050,0.00,0.00,714.69,5400.90
13075,0.00,0.00,714.69,5400.90
13100,0.00,0.00,714.69,5400.90
13125,0.00,0.00,714.69,5400.90
13150,0.00,0.00,714.69,5400.90
13175,0.00,0.00,714.69,5400.90
13200,0.00,0.00,714.69,5400.90
13225,0.00,0.00,714.69,5400.90
13250,0.00,0.00,714.69,5400.90
13275,0.00,0.00,714.69,5400.90
13300,0.00,0.00,714.69,5400.90
13325,0.00,0.00,714.69,5400.90
13350,0.00,0.00,714.69,5400.90
13375,0.00,0.00,714.69,5400.90
13400,0.00,0.00,714.69,5400.90
13425,0.00,0.00,714.69,5400.90
13450,0.00,0.00,714.69,5400.90
13475,0.00,0.00,714.69,5400.90
13500,0.00,0.00,714.69,5400.90
13525,0.00,0.00,714.69,5400.90
13550,0.00,0.00,714.69,5400.90
13575,0.00,0.00,714.69,5400.90
13600,0.00,0.00,714.69,5400.90
13625,0.00,0.00,714.69,5400.90
13650,0.00,0.00,714.69,5400.90
13675,0.00,0.00,714.69,5400.90
13700,0.00,0.00,714.69,5400.90
13725,0.00,0.00,714.69,5400.90
13750,0.00,0.00,714.69,5400.90
13775,0.00,0.00,714.69,5400.90
13800,0.00,0.00,714.69,5400.90
13825,0.00,0.00,714.69,5400.90
13850,0.00,0.00,714.69,5400.90
13875,0.00,0.00,714.69,5400.90
13900,0.00,0.00,714.69,5400.90
13925,0.00,0.00,714.69,5400.90
13950,0.00,0.00,714.69,5400.90
13975,0.00,0.00,714.69,5400.90
14000,0.00,0.00,714.69,5400.90
14025,0.00,0.00,714.69,5400.90
14050,0.00,0.00,714.69,5400.90
14075,0.00,0.00,714.69,5400.90
14100,0.00,0.00,714.69,5400.90
14125,0.00,0.00,714.69,5400.90
14150,0.00,0.00,714.69,5400.90
14175,0.00,0.00,714.69,5400.90
14200,0.00,0.00,714.69,5400.90
14225,0.00,0.00,714.69,5400.90
14250,0.00,0.00,714.69,5400.90
14275,0.00,0.00,714.69,5400.90
14300,0.00,0.00,714.69,5400.90
14325,0.00,0.00,714.69,5400.90
14350,0.00,0.00,714.69,5400.90
14375,0.00,0.00,714.69,5400.90
14400,0.00,0.00,714.69,5400.90
14425,0.00,0.00,714.69,5400.90
14450,0.00,0.00,714.69,5400.90
14475,0.00,0.00,714.69,5400.90
14500,0.00,0.00,714.69,5400.90
14525,0.00,0.00,714.69,5400.90
14550,0.00,0.00,714.69,5400.90
14575,0.00,0.00,714.69,5400.90
14600,0.00,0.00,714.69,5400.90
14625,0.00,0.00,714.69,5400.90
14650,0.00,0.00,714.69,5400.90
14675,0.00,0.00,714.69,5400.90
14700,0.00,0.00,714.69,5400.90
14725,0.00,0.00,714.69,5400.90
14750,0.00,0.00,714.69,5400.90
14775,0.00,0.00,714.69,5400.90
14800,0.00,0.00,714.69,5400.90
14825,0.00,0.00,714.69,5400.90
14850,0.00,0.00,714.69,5400.90
14875,0.00,0.00,714.69,5400.90
14900,0.00,0.00,714.69,5400.90
14925,0.00,0.00,714.69,5400.90
14950,0.00,0.00,714.69,5400.90
14975,0.00,0.00,714.69,5400.90
15000,0.00,0.00,714.69,5400.90
